{
  "title": {
    "spendingPlans": "Planes de Gasto",
    "spendingPlan": "Plan de Gasto",
    "budgets": "Presupuestos",
    "budget": "Presupuesto",
    "permissions": "Permisos",
    "nightMode": "Modo nocturno",
    "language": "Idioma",
    "createAccount": "Crear Cuenta",
    "email": "Email",
    "login": "Iniciar Sesión",
    "logout": "Cerrar Sesión",
    "register": "Registrarse",
    "activate": "Activar",
    "resend": "Reenviar",
    "settings": "Configuración",
    "done": "Hecho",
    "complete": "Terminación",
    "reset": "Restablecer",
    "groupsFilter": "Filtro de grupos",
    "categoriesFilter": "Filtro de categorías",
    "priceRange": "Rango de precios",
    "date": "Fecha",
    "month": "Mes",
    "week": "Semana",
    "day": "Día",
    "today": "Hoy",
    "thisWeek": "Esta semana",
    "thisMonth": "Este mes",
    "orderBy": "Ordenar por",
    "orderByDate": "Más antiguo primero",
    "orderByDateDesc": "Más reciente primero",
    "orderByPrice": "Menor precio primero",
    "orderByPriceDesc": "Mayor precio primero",
    "orderByAmount": "Menor cantidad primero",
    "orderByAmountDesc": "Mayor cantidad primero",
    "orderByPurchasedAt": "Compra más antigua primero",
    "orderByPurchasedAtDesc": "Compra más reciente primero",
    "max": "Máx.",
    "min": "Mín.",
    "error": "Error",
    "you": "Tú",
    "profile": "Perfil",
    "totalExpensesPerGroup": "Gastos totales por grupo",
    "highestExpensesPerItem": "Gastos más altos por artículo",
    "highestExpensesPerCategory": "Gastos más altos por categoría",
    "highestDailyExpenses": "Gastos diarios más altos",
    "dailyExpenses": "Gastos diarios",
    "weeklyExpenses": "Gastos semanales",
    "monthlyExpenses": "Gastos mensuales",
    "currency": "Moneda",
    "myExpenses": "Mis gastos",
    "expense": "Gasto",
    "expenses": "Gastos",
    "item": "Artículo",
    "items": "Artículos",
    "planned": "Planificado",
    "purchased": "Comprado",
    "totalPrice": "Precio total",
    "price": "Precio",
    "quantity": "Cantidad",
    "category": "Categoría",
    "group": "Grupo",
    "groups": "Grupos",
    "leaveGroup": "Salir del grupo",
    "onlyMe": "Solo yo",
    "unit": "Unidad",
    "create": "Crear",
    "createdBy": "Creado por",
    "purchasedBy": "Comprado por",
    "purchasedOn": "Comprado en",
    "plannedOn": "Planificado para el",
    "emailOrUUID": "Email o ID de usuario",
    "digits6Code": "Código de 6 dígitos",
    "accountActivation": "Activación de cuenta",
    "accountSecurity": "Seguridad de la cuenta",
    "loginVerification": "Verificación de inicio de sesión",
    "changePassword": "Cambiar contraseña",
    "resetPassword": "Restablecer contraseña",
    "mfa": "Autenticación de múltiples factores",
    "password": "Contraseña",
    "oldPassword": "Contraseña anterior",
    "newPassword": "Nueva contraseña",
    "confirmPassword": "Confirmar contraseña",
    "secretCode": "Código secreto",
    "confirm2FA": "Confirmar 2FA",
    "enable2FA": "Activar 2FA",
    "enable": "Habilitar",
    "disable": "Deshabilitar",
    "cancel": "Cancelar",
    "googleAuthenticatorApp": "Aplicación Google Authenticator",
    "mfaByEmail": "MFA por correo electrónico",
    "resetSuccessfully": "Restablecimiento exitoso",
    "record": "Registro",
    "save": "Guardar",
    "delete": "Eliminar",
    "edit": "Editar",
    "paste": "Pegar",
    "clear": "Borrar",
    "tryAgain": "Volver a intentar",
    "warning": "Advertencia",
    "currentVersion": "Versión actual",
    "latestVersion": "Última versión",
    "defaultMethod": "Método predeterminado",
    "add": "Agregar",
    "remove": "Eliminar",
    "search": "Buscar",
    "results": "Resultados",
    "newUpdateAvailable": "Nueva actualización disponible",
    "updateNow": "Actualizar ahora",
    "later": "Más tarde",
    "next": "Siguiente",
    "shareApp": "Compartir aplicación",
    "all": "Todos",
    "private": "Privado",
    "createdByMe": "Creado por mí",
    "purchasedByMe": "Comprado por mí"
  },
  "info": {
    "emailNotSent": "¿No recibiste un correo electrónico?",
    "codeResent": "Se ha reenviado el código de 6 dígitos",
    "enterCode": "Ingresa el código de 6 dígitos en el campo a continuación.",
    "mfaSettingHelper": "Activar/Desactivar autenticación de dos factores",
    "changePasswordSettingHelper": "Cambiar tu contraseña",
    "successfulChangePassword": "La contraseña se ha cambiado exitosamente.",
    "forgotPassword": "¿Olvidaste tu contraseña?",
    "noAccount": "¿No tienes una cuenta?",
    "haveAccount": "¿Ya tienes una cuenta?",
    "secretCopied": "El código secreto se ha copiado al portapapeles.",
    "googleAuthenticatorInstruction": "Abre la aplicación de Google Authenticator y escanea el código QR o ingresa manualmente el código secreto.",
    "googleAuthenticatorAppInfo": "Abre la aplicación de Google Authenticator e ingresa el código de 6 dígitos en el campo a continuación.",
    "disableGoogleAuthenticator": "Desactivar Google Authenticator",
    "disableEmailAuthenticator": "Desactivar autenticación de dos factores por correo electrónico",
    "mfaLoginWithGoogleAuthApp": "En cada inicio de sesión, debes proporcionar el número secreto de la aplicación de Google Authenticator para completar el proceso de inicio de sesión.",
    "mfaLoginWithEmail": "En cada inicio de sesión, recibirás un correo electrónico con un número secreto para completar el proceso de inicio de sesión.",
    "resetSuccessfullyInfo": "La contraseña se ha restablecido correctamente. Ahora puedes iniciar sesión con la nueva contraseña.",
    "emailSentInfoPart1": "Te hemos enviado un correo electrónico a ",
    "emailSentInfoPart2": ". El correo electrónico contiene el código de 6 dígitos. Por favor, ingrésalo en el campo a continuación.",
    "emailSenderInfo": "Asegúrate de revisar tu carpeta de correo no deseado o spam.\nEl remitente es ",
    "termsInfo": "Al crear una cuenta, aceptas nuestros\n",
    "privacyPolicy": "Política de privacidad",
    "termsCondition": "Términos y condiciones",
    "newUpdateAvailableInfo": "Hay una versión más reciente de la aplicación disponible. Por favor, actualízala ahora.",
    "newMustUpdateAvailableInfo": "Hay una versión más reciente de la aplicación disponible. La aplicación debe actualizarse para poder seguir utilizándola.",
    "useOtherMethod": "Usar otro método",
    "removingUserFromGroupConfirmation": "¿Estás seguro(a) de que deseas eliminar a @email de este grupo?"
  },
  "error": {
    "invalidValue": "¡El valor no es válido!",
    "requiredEmailOrUuid": "¡Se requiere el correo electrónico o UUID!",
    "tooLarge": "¡El valor es demasiado grande!",
    "longValue": "¡El texto es demasiado largo!",
    "requiredName": "¡Nombre es requerido!",
    "requiredPrice": "¡Precio es requerido!",
    "requiredAmount": "¡Cantidad es requerida!",
    "requiredBudget": "¡Se requiere presupuesto!",
    "requiredEmail": "¡Correo electrónico es requerido!",
    "requiredPassword": "¡Contraseña es requerida!",
    "requiredConfirmPassword": "¡Confirmación de contraseña es requerida!",
    "requiredCode": "¡Código es requerido!",
    "invalidEmail": "¡Correo electrónico inválido!",
    "invalidUserId": "¡ID de usuario inválido!",
    "invalid6DigitsCode": "¡Código de 6 dígitos inválido!",
    "weakPassword": "¡Contraseña débil!",
    "notMatchPassword": "¡La contraseña y su confirmación no coinciden!",
    "wrongLoginCredentials": "¡Credenciales de inicio de sesión incorrectas!",
    "atLeast": "La contraseña debe tener al menos 8 caracteres",
    "lowercaseLetter": "La contraseña debe tener al menos 1 letra minúscula",
    "uppercaseLetter": "La contraseña debe tener al menos 1 letra mayúscula",
    "numericCharacter": "La contraseña debe tener al menos 1 número",
    "specialCharacter": "La contraseña debe tener al menos 1 carácter especial",
    "serverError": "¡Ups! Algo salió mal en el servidor. Por favor, inténtalo de nuevo más tarde.",
    "badRequest": "¡Ups! La solicitud fue incorrecta. Por favor, verifica la información proporcionada.",
    "unauthenticated": "Lo siento, no estás autenticado para acceder a este recurso. Por favor, inicia sesión.",
    "unauthorized": "¡Acceso denegado! No tienes los permisos necesarios para realizar esta acción.",
    "notFound": "¡Ups! No se encontró el recurso solicitado.",
    "timeout": "La solicitud tardó demasiado en procesarse. Por favor, inténtalo de nuevo más tarde.",
    "canceledRequest": "La solicitud fue cancelada antes de poder completarse. Por favor, inténtalo de nuevo."
  },
  "currency": {
    "eur": "Euro",
    "usd": "Dólar estadounidense",
    "gbp": "Libra esterlina",
    "aed": "Dirham de los Emiratos Árabes Unidos",
    "afn": "Afghani afgano",
    "all_": "Lek albanés",
    "amd": "Dram armenio",
    "ang": "Florín de las Antillas Neerlandesas",
    "aoa": "Kwanza angoleño",
    "ars": "Peso argentino",
    "aud": "Dólar australiano",
    "awg": "Florín de Aruba",
    "azn": "Manat azerbaiyano",
    "bam": "Marco convertible de Bosnia y Herzegovina",
    "bbd": "Dólar de Barbados",
    "bdt": "Taka bangladesí",
    "bgn": "Lev búlgaro",
    "bhd": "Dinar bahreiní",
    "bif": "Franco de Burundi",
    "bmd": "Dólar de Bermudas",
    "bnd": "Dólar de Brunéi",
    "bob": "Boliviano boliviano",
    "brl": "Real brasileño",
    "bsd": "Dólar bahameño",
    "btn": "Ngultrum butanés",
    "bwp": "Pula de Botsuana",
    "byn": "Rublo bielorruso",
    "byr": "Rublo bielorruso",
    "bzd": "Dólar de Belice",
    "cad": "Dólar canadiense",
    "cdf": "Franco congoleño",
    "chf": "Franco suizo",
    "clf": "Unidad de Fomento chilena",
    "clp": "Peso chileno",
    "cny": "Yuan chino",
    "cop": "Peso colombiano",
    "crc": "Colón costarricense",
    "cuc": "Peso cubano convertible",
    "cup": "Peso cubano",
    "cve": "Escudo caboverdiano",
    "czk": "Corona checa",
    "djf": "Franco yibutiano",
    "dkk": "Corona danesa",
    "dop": "Peso dominicano",
    "dzd": "Dinar argelino",
    "egp": "Libra egipcia",
    "ern": "Nakfa eritreo",
    "etb": "Birr etíope",
    "fjd": "Dólar fiyiano",
    "fkp": "Libra de las Islas Malvinas",
    "gel": "Lari georgiano",
    "ggp": "Libra de Guernsey",
    "ghs": "Cedi ghanés",
    "gip": "Libra de Gibraltar",
    "gmd": "Dalasi gambiano",
    "gnf": "Franco guineano",
    "gtq": "Quetzal guatemalteco",
    "gyd": "Dólar guyanés",
    "hkd": "Dólar de Hong Kong",
    "hnl": "Lempira hondureño",
    "hrk": "Kuna croata",
    "htg": "Gourde haitiano",
    "huf": "Forinto húngaro",
    "idr": "Rupia indonesia",
    "imp": "Libra de la Isla de Man",
    "inr": "Rupia india",
    "iqd": "Dinar iraquí",
    "irr": "Rial iraní",
    "isk": "Corona islandesa",
    "jep": "Libra de Jersey",
    "jmd": "Dólar jamaicano",
    "jod": "Dinar jordano",
    "jpy": "Yen japonés",
    "kes": "Chelín keniano",
    "kgs": "Som kirguís",
    "khr": "Riel camboyano",
    "kmf": "Franco comorense",
    "kpw": "Won norcoreano",
    "krw": "Won surcoreano",
    "kwd": "Dinar kuwaití",
    "kyd": "Dólar de las Islas Caimán",
    "kzt": "Tenge kazajo",
    "lak": "Kip laosiano",
    "lbp": "Libra libanesa",
    "lkr": "Rupia de Sri Lanka",
    "lrd": "Dólar liberiano",
    "lsl": "Loti lesothense",
    "ltl": "Litas lituano",
    "lvl": "Lats letón",
    "lyd": "Dinar libio",
    "mad": "Dírham marroquí",
    "mdl": "Leu moldavo",
    "mga": "Ariary malgache",
    "mkd": "Dinar macedonio",
    "mmk": "Kyat de Myanmar",
    "mnt": "Tugrik mongol",
    "mop": "Pataca de Macao",
    "mro": "Uguiya mauritano",
    "mur": "Rupia mauriciana",
    "mvr": "Rufiyaa de Maldivas",
    "mwk": "Kwacha malauí",
    "mxn": "Peso mexicano",
    "myr": "Ringgit malayo",
    "mzn": "Metical mozambiqueño",
    "nad": "Dólar namibio",
    "ngn": "Naira nigeriano",
    "nio": "Córdoba nicaragüense",
    "nok": "Corona noruega",
    "npr": "Rupia nepalesa",
    "nzd": "Dólar neozelandés",
    "omr": "Rial omaní",
    "pab": "Balboa panameño",
    "pen": "Sol peruano",
    "pgk": "Kina de Papúa Nueva Guinea",
    "php": "Peso filipino",
    "pkr": "Rupia paquistaní",
    "pln": "Zloty polaco",
    "pyg": "Guaraní paraguayo",
    "qar": "Riyal catarí",
    "ron": "Leu rumano",
    "rsd": "Dinar serbio",
    "rub": "Rublo ruso",
    "rwf": "Franco ruandés",
    "sar": "Riyal saudí",
    "sbd": "Dólar de las Islas Salomón",
    "scr": "Rupia seychelense",
    "sdg": "Libra sudanesa",
    "sek": "Corona sueca",
    "sgd": "Dólar singapurense",
    "shp": "Libra de Santa Elena",
    "sll": "Leone sierraleonés",
    "sos": "Chelín somalí",
    "srd": "Dólar surinamés",
    "std": "Dobra de Santo Tomé y Príncipe",
    "svc": "Colón salvadoreño",
    "syp": "Libra siria",
    "szl": "Lilangeni suazi",
    "thb": "Baht tailandés",
    "tjs": "Somoni tayiko",
    "tmt": "Manat turcomano",
    "tnd": "Dinar tunecino",
    "top": "Paʻanga tongano",
    "try": "Lira turca",
    "ttd": "Dólar de Trinidad y Tobago",
    "twd": "Nuevo dólar taiwanés",
    "tzs": "Chelín tanzano",
    "uah": "Grivna ucraniana",
    "ugx": "Chelín ugandés",
    "uyu": "Peso uruguayo",
    "uzs": "Som uzbeko",
    "vef": "Bolívar fuerte venezolano",
    "vnd": "Dong vietnamita",
    "vuv": "Vatu vanuatuense",
    "wst": "Tala samoano",
    "xaf": "Franco CFA de África Central",
    "xag": "Plata (onza troy)",
    "xau": "Oro (onza troy)",
    "xcd": "Dólar del Caribe Oriental",
    "xdr": "Derechos especiales de giro",
    "xof": "Franco CFA de África Occidental",
    "xpf": "Franco CFP",
    "yer": "Rial yemení",
    "zar": "Rand sudafricano",
    "zmw": "Kwacha zambiano"
  },
  "unit": {
    "piece": "pieza",
    "ticket": "boleto",
    "box": "caja",
    "pack": "Paquete",
    "set": "Juego",
    "bag": "Bolsa",
    "dozen": "Docena",
    "pair": "Par",
    "roll": "Rollo",
    "gram": "gramo",
    "kilogram": "kilogramo",
    "ton": "tonelada",
    "millimeter": "milímetro",
    "centimeter": "centímetro",
    "meter": "metro",
    "kilometer": "kilómetro",
    "squareMeter": "metro cuadrado",
    "cubicMeter": "metro cúbico",
    "inch": "pulgada",
    "foot": "pie",
    "mile": "milla",
    "squareFoot": "pie cuadrado",
    "cubicFoot": "pie cúbico",
    "milliliter": "mililitro",
    "liter": "litro",
    "gallon": "galón",
    "watt": "vatio",
    "kilowatt": "kilovatio",
    "hour": "hora",
    "day": "día",
    "week": "semana",
    "month": "mes",
    "year": "Año"
  },
  "category": {
    "housing": "Vivienda",
    "transportation": "Transporte",
    "food": "Alimentación",
    "entertainment": "Entretenimiento",
    "health": "Salud",
    "personalCare": "Cuidado Personal",
    "clothing": "Ropa",
    "education": "Educación",
    "giftsAndDonations": "Regalos y Donaciones",
    "bill": "Facturas",
    "insurance": "Seguro",
    "investments": "Inversiones y Ahorros",
    "pet": "Mascotas",
    "travel": "Viajes y Vacaciones",
    "misc": "Varios"
  }
}
